2020-06-05 12:26:34 - TShock: INFO: TShock was improperly shut down. Please use the exit command in the future to prevent this.
2020-06-05 12:26:34 - TextLog: INFO: TShock 4.4.0.0 (Go to sleep Patrikkk, Icy, Chris, Death, Axeel, Zaicon, hakusaro, Zack, and Yoraiz0r <3) now running.
2020-06-05 12:26:34 - TShock: INFO: AutoSave Enabled
2020-06-05 12:26:34 - TShock: INFO: Backups Disabled
2020-06-05 12:26:34 - TShock: INFO: Welcome to TShock for Terraria!
2020-06-05 12:26:34 - TShock: INFO: TShock comes with no warranty & is free software.
2020-06-05 12:26:34 - TShock: INFO: You can modify & distribute it under the terms of the GNU GPLv3.
