2020-06-13 09:04:55 - <>c: INFO: Port overridden by startup argument. Set to 7717
2020-06-13 09:04:55 - TextLog: INFO: TShock 4.4.0.0 (Go to sleep Patrikkk, Icy, Chris, Death, Axeel, Zaicon, hakusaro, Zack, and Yoraiz0r <3) now running.
2020-06-13 09:04:55 - TShock: INFO: AutoSave Enabled
2020-06-13 09:04:55 - TShock: INFO: Backups Disabled
2020-06-13 09:04:55 - TShock: INFO: Welcome to TShock for Terraria!
2020-06-13 09:04:55 - TShock: INFO: TShock comes with no warranty & is free software.
2020-06-13 09:04:55 - TShock: INFO: You can modify & distribute it under the terms of the GNU GPLv3.
2020-06-13 09:05:16 - GetDataHandlers: INFO: HupsiPupshi authenticated successfully as user HupsiPupshi.
2020-06-13 09:05:17 - TShock: INFO: HupsiPupshi (127.0.0.1) from 'owner' group joined. (1/4)
2020-06-13 09:05:17 - Utils: INFO: Broadcast: HupsiPupshi has joined.
2020-06-13 09:07:53 - Utils: INFO: HupsiPupshi executed: /item geode.
2020-06-13 09:15:15 - Utils: INFO: Broadcast: Saving world...
2020-06-13 09:21:34 - Utils: INFO: HupsiPupshi executed: /item miceacar.
2020-06-13 09:21:39 - Utils: INFO: HupsiPupshi executed: /item minecart track.
2020-06-13 09:25:09 - Utils: INFO: HupsiPupshi executed: /item safe 3.
2020-06-13 09:25:15 - Utils: INFO: Broadcast: Saving world...
2020-06-13 09:35:15 - Utils: INFO: Broadcast: Saving world...
2020-06-13 09:44:54 - Utils: INFO: HupsiPupshi executed: /time day.
2020-06-13 09:45:15 - Utils: INFO: Broadcast: Saving world...
2020-06-13 09:55:10 - Utils: INFO: HupsiPupshi executed: /item sandstone brick.
2020-06-13 09:55:15 - Utils: INFO: Broadcast: Saving world...
2020-06-13 10:05:15 - Utils: INFO: Broadcast: Saving world...
2020-06-13 10:15:15 - Utils: INFO: Broadcast: Saving world...
2020-06-13 10:17:39 - Utils: INFO: HupsiPupshi executed: /item bamboo.
2020-06-13 10:25:15 - Utils: INFO: Broadcast: Saving world...
2020-06-13 10:35:15 - Utils: INFO: Broadcast: Saving world...
2020-06-13 10:45:15 - Utils: INFO: Broadcast: Saving world...
2020-06-13 10:55:16 - Utils: INFO: Broadcast: Saving world...
2020-06-13 11:04:11 - Utils: INFO: HupsiPupshi executed: /item minecart t 200.
2020-06-13 11:05:16 - Utils: INFO: Broadcast: Saving world...
2020-06-13 11:15:16 - Utils: INFO: Broadcast: Saving world...
2020-06-13 11:25:04 - Utils: INFO: HupsiPupshi executed: /item potion of return 20.
2020-06-13 11:25:16 - Utils: INFO: Broadcast: Saving world...
2020-06-13 11:35:16 - Utils: INFO: Broadcast: Saving world...
2020-06-13 11:45:16 - Utils: INFO: Broadcast: Saving world...
2020-06-13 11:55:16 - Utils: INFO: Broadcast: Saving world...
2020-06-13 11:55:40 - Utils: INFO: HupsiPupshi executed: /heal.
2020-06-13 11:55:50 - Utils: INFO: HupsiPupshi executed: /heal.
2020-06-13 11:56:26 - Utils: INFO: HupsiPupshi executed: /item 50.
2020-06-13 11:56:33 - Utils: INFO: Broadcast: HupsiPupshi: \/item 4981 
2020-06-13 11:56:35 - Utils: INFO: HupsiPupshi executed: /item 4981 .
2020-06-13 12:05:16 - Utils: INFO: Broadcast: Saving world...
2020-06-13 12:05:17 - Utils: INFO: HupsiPupshi executed: /item water can.
2020-06-13 12:09:24 - Utils: INFO: HupsiPupshi executed: /item dynam.
2020-06-13 12:09:28 - Utils: INFO: HupsiPupshi executed: /item fynamite.
2020-06-13 12:09:32 - Utils: INFO: HupsiPupshi executed: /item dynamite.
2020-06-13 12:10:43 - Utils: INFO: HupsiPupshi executed: /item actutaor.
2020-06-13 12:10:45 - Utils: INFO: HupsiPupshi executed: /item actu.
2020-06-13 12:10:48 - Utils: INFO: HupsiPupshi executed: /item actuator.
2020-06-13 12:10:51 - Utils: INFO: HupsiPupshi executed: /item actuation.
2020-06-13 12:11:22 - Utils: INFO: HupsiPupshi executed: /item layer.
2020-06-13 12:11:54 - Utils: INFO: HupsiPupshi executed: /item 538 1.
2020-06-13 12:15:16 - Utils: INFO: Broadcast: Saving world...
2020-06-13 12:25:16 - Utils: INFO: Broadcast: Saving world...
2020-06-13 12:35:16 - Utils: INFO: Broadcast: Saving world...
2020-06-13 12:37:40 - Utils: INFO: HupsiPupshi executed: /item Spelunker Potion.
2020-06-13 12:40:55 - Utils: INFO: HupsiPupshi executed: /spawnmob 113.
2020-06-13 12:41:17 - Utils: INFO: HupsiPupshi executed: /spawnmob 113 2.
2020-06-13 12:41:54 - Utils: INFO: HupsiPupshi executed: /spawnmob 113 .
2020-06-13 12:42:29 - Utils: INFO: HupsiPupshi executed: /spawnmob 113 .
2020-06-13 12:45:16 - Utils: INFO: Broadcast: Saving world...
2020-06-13 12:47:47 - Utils: INFO: HupsiPupshi executed: /item 3862.
2020-06-13 12:47:52 - Utils: INFO: HupsiPupshi executed: /item 3862 1.
2020-06-13 12:48:03 - Utils: INFO: HupsiPupshi executed: /item 3861 1.
2020-06-13 12:48:20 - Utils: INFO: HupsiPupshi executed: /item 3861.
2020-06-13 12:48:48 - Utils: INFO: Server executed: /give 3318 h.
2020-06-13 12:48:48 - Utils: INFO: Server executed: /give 3319 h.
2020-06-13 12:48:48 - Utils: INFO: Server executed: /give 3320 h.
2020-06-13 12:48:48 - Utils: INFO: Server executed: /give 3321 h.
2020-06-13 12:48:48 - Utils: INFO: Server executed: /give 3322 h.
2020-06-13 12:48:48 - Utils: INFO: Server executed: /give 3323 h.
2020-06-13 12:48:48 - Utils: INFO: Server executed: /give 3324 h.
2020-06-13 12:48:48 - Utils: INFO: Server executed: /give 3325 h.
2020-06-13 12:48:48 - Utils: INFO: Server executed: /give 3326 h.
2020-06-13 12:48:48 - Utils: INFO: Server executed: /give 3327 h.
2020-06-13 12:48:48 - Utils: INFO: Server executed: /give 3328 h.
2020-06-13 12:48:48 - Utils: INFO: Server executed: /give 3329 h.
2020-06-13 12:48:48 - Utils: INFO: Server executed: /give 3330 h.
2020-06-13 12:48:48 - Utils: INFO: Server executed: /give 3331 h.
2020-06-13 12:48:48 - Utils: INFO: Server executed: /give 3860 h.
2020-06-13 12:48:49 - Utils: INFO: Server executed: /give 3332 h.
2020-06-13 12:55:16 - Utils: INFO: Broadcast: Saving world...
2020-06-13 12:58:10 - Utils: INFO: HupsiPupshi executed: /item amber mos.
2020-06-13 13:03:48 - Utils: INFO: HupsiPupshi executed: /item 4957.
2020-06-13 13:03:53 - Utils: INFO: HupsiPupshi executed: /item 4782.
2020-06-13 13:05:16 - Utils: INFO: Broadcast: Saving world...
2020-06-13 13:15:16 - Utils: INFO: Broadcast: Saving world...
2020-06-13 13:25:16 - Utils: INFO: Broadcast: Saving world...
2020-06-13 13:31:52 - Utils: INFO: HupsiPupshi executed: /item 3331.
2020-06-13 13:35:16 - Utils: INFO: Broadcast: Saving world...
2020-06-13 13:45:16 - Utils: INFO: Broadcast: Saving world...
2020-06-13 13:49:27 - Utils: INFO: HupsiPupshi executed: /item 66.
2020-06-13 13:50:09 - Utils: INFO: HupsiPupshi executed: /item 66.
2020-06-13 13:50:11 - Utils: INFO: HupsiPupshi executed: /item 66 999.
2020-06-13 13:50:12 - Utils: INFO: HupsiPupshi executed: /item 66.
2020-06-13 13:50:13 - Utils: INFO: HupsiPupshi executed: /item .
2020-06-13 13:50:15 - Utils: INFO: HupsiPupshi executed: /item 66.
2020-06-13 13:55:16 - Utils: INFO: Broadcast: Saving world...
2020-06-13 14:05:16 - Utils: INFO: Broadcast: Saving world...
2020-06-13 14:15:16 - Utils: INFO: Broadcast: Saving world...
2020-06-13 14:25:16 - Utils: INFO: Broadcast: Saving world...
2020-06-13 14:31:55 - Utils: INFO: HupsiPupshi executed: /time day.
2020-06-13 14:35:16 - Utils: INFO: Broadcast: Saving world...
2020-06-13 14:36:14 - Utils: INFO: HupsiPupshi executed: /item clentaminator.
2020-06-13 14:36:56 - Utils: INFO: HupsiPupshi executed: /item green solu.
2020-06-13 14:44:07 - Utils: INFO: HupsiPupshi executed: /item Silt.
2020-06-13 14:45:02 - Utils: INFO: HupsiPupshi executed: /item Silt.
2020-06-13 14:45:07 - Utils: INFO: HupsiPupshi executed: /item green solution.
2020-06-13 14:45:16 - Utils: INFO: Broadcast: Saving world...
2020-06-13 14:52:14 - Utils: INFO: HupsiPupshi executed: /time day.
2020-06-13 14:52:50 - Utils: INFO: HupsiPupshi executed: /item dynamite.
2020-06-13 14:53:43 - Utils: INFO: HupsiPupshi executed: /godmode.
2020-06-13 14:55:16 - Utils: INFO: Broadcast: Saving world...
2020-06-13 14:57:43 - Utils: INFO: HupsiPupshi executed: /item safe 80.
2020-06-13 15:05:16 - Utils: INFO: Broadcast: Saving world...
2020-06-13 15:06:40 - Utils: INFO: HupsiPupshi executed: /item teleport.
2020-06-13 15:06:45 - Utils: INFO: HupsiPupshi executed: /item teleporation pot.
2020-06-13 15:06:49 - Utils: INFO: HupsiPupshi executed: /item teleporta.
2020-06-13 15:09:14 - Utils: INFO: HupsiPupshi executed: /item teleporta.
2020-06-13 15:11:07 - Utils: INFO: HupsiPupshi executed: /item switch.
2020-06-13 15:15:16 - Utils: INFO: Broadcast: Saving world...
2020-06-13 15:15:22 - Utils: INFO: HupsiPupshi executed: /item dynamite.
2020-06-13 15:20:39 - Utils: INFO: HupsiPupshi executed: /item 556.
2020-06-13 15:20:41 - Utils: INFO: HupsiPupshi executed: /item 557.
2020-06-13 15:20:43 - Utils: INFO: HupsiPupshi executed: /item 558.
2020-06-13 15:20:45 - Utils: INFO: HupsiPupshi executed: /item 555.
2020-06-13 15:21:05 - Utils: INFO: HupsiPupshi executed: /item 544.
2020-06-13 15:21:11 - Utils: INFO: HupsiPupshi executed: /time night.
2020-06-13 15:21:12 - Utils: INFO: HupsiPupshi summoned the The Destroyer!
2020-06-13 15:21:13 - Utils: INFO: HupsiPupshi summoned the Skeletron Prime!
2020-06-13 15:21:16 - Utils: INFO: HupsiPupshi summoned the Retinazer!
2020-06-13 15:21:16 - Utils: INFO: HupsiPupshi summoned the Spazmatism!
2020-06-13 15:22:02 - Utils: INFO: HupsiPupshi summoned the The Destroyer!
2020-06-13 15:22:03 - Utils: INFO: HupsiPupshi summoned the Skeletron Prime!
2020-06-13 15:22:05 - Utils: INFO: HupsiPupshi summoned the Retinazer!
2020-06-13 15:22:05 - Utils: INFO: HupsiPupshi summoned the Spazmatism!
2020-06-13 15:22:58 - Utils: INFO: HupsiPupshi summoned the The Destroyer!
2020-06-13 15:23:00 - Utils: INFO: HupsiPupshi summoned the Skeletron Prime!
2020-06-13 15:23:01 - Utils: INFO: HupsiPupshi summoned the Retinazer!
2020-06-13 15:23:01 - Utils: INFO: HupsiPupshi summoned the Spazmatism!
2020-06-13 15:25:13 - Utils: INFO: HupsiPupshi executed: /time day.
2020-06-13 15:25:16 - Utils: INFO: Broadcast: Saving world...
2020-06-13 15:34:23 - Utils: INFO: HupsiPupshi executed: /item teleportaion.
2020-06-13 15:34:29 - Utils: INFO: HupsiPupshi executed: /item teleportai.
2020-06-13 15:34:33 - Utils: INFO: HupsiPupshi executed: /item teleporta.
2020-06-13 15:35:16 - Utils: INFO: Broadcast: Saving world...
2020-06-13 15:36:12 - Utils: INFO: HupsiPupshi executed: /spawnmob 262.
2020-06-13 15:36:29 - Utils: INFO: HupsiPupshi executed: /spawnmob 262 50.
2020-06-13 15:38:02 - Utils: INFO: HupsiPupshi executed: /time noon.
2020-06-13 15:39:22 - Utils: INFO: HupsiPupshi executed: /item 2322 .
2020-06-13 15:39:44 - Utils: INFO: HupsiPupshi executed: /item 2322 .
2020-06-13 15:45:16 - Utils: INFO: Broadcast: Saving world...
2020-06-13 15:45:38 - Utils: INFO: HupsiPupshi executed: /item 2768 .
2020-06-13 15:50:23 - Utils: INFO: HupsiPupshi executed: /item sand block 20.
2020-06-13 15:50:27 - Utils: INFO: HupsiPupshi executed: /item sand block 200.
2020-06-13 15:50:44 - Utils: INFO: HupsiPupshi executed: /time noon.
2020-06-13 15:53:26 - Utils: INFO: HupsiPupshi executed: /item green solution 500.
2020-06-13 15:55:16 - Utils: INFO: Broadcast: Saving world...
2020-06-13 16:01:39 - Utils: INFO: HupsiPupshi executed: /time day.
2020-06-13 16:03:20 - Utils: INFO: HupsiPupshi executed: /item botemless.
2020-06-13 16:03:25 - Utils: INFO: HupsiPupshi executed: /item bottomless wa.
2020-06-13 16:05:16 - Utils: INFO: Broadcast: Saving world...
2020-06-13 16:13:05 - Utils: INFO: HupsiPupshi executed: /item 1293.
2020-06-13 16:15:16 - Utils: INFO: Broadcast: Saving world...
2020-06-13 16:25:16 - Utils: INFO: Broadcast: Saving world...
2020-06-13 16:35:16 - Utils: INFO: Broadcast: Saving world...
2020-06-13 16:45:16 - Utils: INFO: Broadcast: Saving world...
2020-06-13 16:51:11 - Utils: INFO: HupsiPupshi executed: /ITEM slit.
2020-06-13 16:51:14 - Utils: INFO: HupsiPupshi executed: /item slit.
2020-06-13 16:51:16 - Utils: INFO: HupsiPupshi executed: /item slet.
2020-06-13 16:51:19 - Utils: INFO: HupsiPupshi executed: /item sleit.
2020-06-13 16:51:47 - Utils: INFO: HupsiPupshi executed: /item Silt.
2020-06-13 16:55:16 - Utils: INFO: Broadcast: Saving world...
2020-06-13 16:56:48 - Utils: INFO: HupsiPupshi summoned the Golem!
2020-06-13 16:57:38 - Utils: INFO: HupsiPupshi summoned the Golem!
2020-06-13 16:57:55 - Utils: INFO: HupsiPupshi summoned the Golem!
2020-06-13 16:58:12 - Utils: INFO: HupsiPupshi summoned the Golem!
2020-06-13 16:58:27 - Utils: INFO: HupsiPupshi summoned the Golem!
2020-06-13 16:58:43 - Utils: INFO: HupsiPupshi summoned the Golem!
2020-06-13 16:58:59 - Utils: INFO: HupsiPupshi summoned the Golem!
2020-06-13 16:59:17 - Utils: INFO: HupsiPupshi summoned the Golem!
2020-06-13 16:59:30 - Utils: INFO: HupsiPupshi summoned the Golem!
2020-06-13 16:59:45 - Utils: INFO: HupsiPupshi summoned the Golem!
2020-06-13 17:00:41 - Utils: INFO: HupsiPupshi summoned the Golem!
2020-06-13 17:00:54 - Utils: INFO: HupsiPupshi summoned the Golem!
2020-06-13 17:01:04 - Utils: INFO: HupsiPupshi summoned the Golem!
2020-06-13 17:01:15 - Utils: INFO: HupsiPupshi summoned the Golem!
2020-06-13 17:01:24 - Utils: INFO: HupsiPupshi summoned the Golem!
2020-06-13 17:01:35 - Utils: INFO: HupsiPupshi summoned the Golem!
2020-06-13 17:01:46 - Utils: INFO: HupsiPupshi executed: /spawnmob 24 50.
2020-06-13 17:02:13 - Utils: INFO: HupsiPupshi executed: /item 245.
2020-06-13 17:02:18 - Utils: INFO: HupsiPupshi executed: /spawnmob 245.
2020-06-13 17:02:25 - Utils: INFO: HupsiPupshi executed: /spawnmob 245 50.
2020-06-13 17:03:11 - Utils: INFO: HupsiPupshi executed: /spawnmob 245 100.
2020-06-13 17:05:16 - Utils: INFO: Broadcast: Saving world...
2020-06-13 17:15:16 - Utils: INFO: Broadcast: Saving world...
2020-06-13 17:16:46 - Utils: INFO: HupsiPupshi executed: /time night.
2020-06-13 17:16:50 - Utils: INFO: HupsiPupshi executed: /spawnmob 125 0100.
2020-06-13 17:19:05 - Utils: INFO: HupsiPupshi executed: /spawnmob 126.
2020-06-13 17:19:09 - Utils: INFO: HupsiPupshi executed: /spawnmob 127.
2020-06-13 17:19:13 - Utils: INFO: HupsiPupshi executed: /spawnmob 128.
2020-06-13 17:19:29 - Utils: INFO: HupsiPupshi executed: /spawnmob 128.
2020-06-13 17:19:32 - Utils: INFO: HupsiPupshi executed: /spawnmob 129.
2020-06-13 17:19:34 - Utils: INFO: HupsiPupshi executed: /spawnmob 130.
2020-06-13 17:19:36 - Utils: INFO: HupsiPupshi executed: /spawnmob 131.
2020-06-13 17:19:38 - Utils: INFO: HupsiPupshi executed: /spawnmob 122.
2020-06-13 17:19:43 - Utils: INFO: HupsiPupshi executed: /spawnmob 135.
2020-06-13 17:19:45 - Utils: INFO: HupsiPupshi executed: /spawnmob 136.
2020-06-13 17:19:46 - Utils: INFO: HupsiPupshi executed: /spawnmob 137.
2020-06-13 17:19:48 - Utils: INFO: HupsiPupshi executed: /spawnmob 133.
2020-06-13 17:19:50 - Utils: INFO: HupsiPupshi executed: /spawnmob 135.
2020-06-13 17:19:51 - Utils: INFO: HupsiPupshi executed: /spawnmob 134.
2020-06-13 17:20:00 - Utils: INFO: HupsiPupshi executed: /spawnmob 134 100.
2020-06-13 17:20:28 - Utils: INFO: HupsiPupshi executed: /spawnmob 134.
2020-06-13 17:20:45 - Utils: INFO: HupsiPupshi executed: /spawnmob /spawnmob 1.
2020-06-13 17:20:46 - Utils: INFO: HupsiPupshi executed: /spawnmob 134.
2020-06-13 17:20:49 - Utils: INFO: HupsiPupshi executed: /spawnmob 134 3.
2020-06-13 17:20:54 - Utils: INFO: HupsiPupshi executed: /spawnmob 134 2.
2020-06-13 17:20:58 - Utils: INFO: HupsiPupshi executed: /spawnmob 134 10.
2020-06-13 17:21:00 - Utils: INFO: HupsiPupshi executed: /spawnmob 134 10.
2020-06-13 17:21:08 - Utils: INFO: HupsiPupshi executed: /spawnmob 134.
2020-06-13 17:21:10 - Utils: INFO: HupsiPupshi executed: /spawnmob 135.
2020-06-13 17:21:12 - Utils: INFO: HupsiPupshi executed: /spawnmob 133.
2020-06-13 17:21:14 - Utils: INFO: HupsiPupshi executed: /spawnmob 134.
2020-06-13 17:21:15 - Utils: INFO: HupsiPupshi executed: /spawnmob 134.
2020-06-13 17:21:16 - Utils: INFO: HupsiPupshi executed: /spawnmob 134.
2020-06-13 17:21:17 - Utils: INFO: HupsiPupshi executed: /spawnmob 134.
2020-06-13 17:21:17 - Utils: INFO: HupsiPupshi executed: /spawnmob 134.
2020-06-13 17:21:18 - Utils: INFO: HupsiPupshi executed: /spawnmob 134.
2020-06-13 17:21:18 - Utils: INFO: HupsiPupshi executed: /spawnmob 134.
2020-06-13 17:21:19 - Utils: INFO: HupsiPupshi executed: /spawnmob 134.
2020-06-13 17:21:19 - Utils: INFO: HupsiPupshi executed: /spawnmob 134.
2020-06-13 17:21:20 - Utils: INFO: HupsiPupshi executed: /spawnmob 134.
2020-06-13 17:21:20 - Utils: INFO: HupsiPupshi executed: /spawnmob 134.
2020-06-13 17:21:21 - Utils: INFO: HupsiPupshi executed: /spawnmob 134.
2020-06-13 17:25:16 - Utils: INFO: Broadcast: Saving world...
2020-06-13 17:26:26 - Utils: INFO: HupsiPupshi executed: /time noon.
2020-06-13 17:34:20 - Utils: INFO: HupsiPupshi executed: /time noon.
2020-06-13 17:35:16 - Utils: INFO: Broadcast: Saving world...
2020-06-13 17:41:11 - Utils: INFO: Broadcast: HupsiPupshi: SA
2020-06-13 17:42:02 - Utils: INFO: HupsiPupshi executed: /time noon.
2020-06-13 17:42:06 - Utils: INFO: HupsiPupshi executed: /worldevent.
2020-06-13 17:43:12 - Utils: INFO: HupsiPupshi executed: /spawnmob 399.
2020-06-13 17:44:43 - Utils: INFO: HupsiPupshi executed: /item pearlwood 300.
2020-06-13 17:45:16 - Utils: INFO: Broadcast: Saving world...
2020-06-13 17:45:54 - Utils: INFO: HupsiPupshi executed: /item 781 10.
2020-06-13 17:46:14 - Utils: INFO: HupsiPupshi executed: /item 784 4.
2020-06-13 17:46:27 - Utils: INFO: HupsiPupshi executed: /item 784 20.
2020-06-13 17:46:44 - Utils: INFO: HupsiPupshi executed: /item 781 2.
2020-06-13 17:52:45 - Utils: INFO: HupsiPupshi executed: /time noon.
2020-06-13 17:53:27 - Utils: INFO: HupsiPupshi executed: /item drill.
2020-06-13 17:54:06 - Utils: INFO: HupsiPupshi executed: /item bottomless wa.
2020-06-13 17:55:16 - Utils: INFO: Broadcast: Saving world...
2020-06-13 17:57:00 - Utils: INFO: HupsiPupshi executed: /item snow block.
2020-06-13 18:00:15 - Utils: INFO: HupsiPupshi executed: /spawnmob 399.
2020-06-13 18:00:27 - Utils: INFO: HupsiPupshi executed: /spawnmob 399 10.
2020-06-13 18:03:13 - Utils: INFO: HupsiPupshi executed: /spawnmob 399 10.
2020-06-13 18:03:46 - Utils: INFO: HupsiPupshi executed: /item Endurance Potion 10.
2020-06-13 18:05:00 - Utils: INFO: HupsiPupshi executed: /item Lifeforce Potion.
2020-06-13 18:05:16 - Utils: INFO: Broadcast: Saving world...
2020-06-13 18:05:23 - Utils: INFO: HupsiPupshi executed: /item Lifeforce Potion.
2020-06-13 18:06:04 - Utils: INFO: HupsiPupshi executed: /spawnmob 399 10.
2020-06-13 18:06:10 - Utils: INFO: HupsiPupshi executed: /item green.
2020-06-13 18:06:14 - Utils: INFO: HupsiPupshi executed: /item green life.
2020-06-13 18:06:41 - Utils: INFO: HupsiPupshi executed: /item Life Fruit 20.
2020-06-13 18:09:48 - Utils: INFO: HupsiPupshi executed: /spawnmob.
2020-06-13 18:09:50 - Utils: INFO: HupsiPupshi executed: /spawnmob 392 200.
2020-06-13 18:09:53 - Utils: INFO: HupsiPupshi executed: /time night.
2020-06-13 18:09:56 - Utils: INFO: HupsiPupshi executed: /spawnmob 392 2.
2020-06-13 18:10:09 - Utils: INFO: HupsiPupshi executed: /spawnmob 399 .
2020-06-13 18:10:20 - Utils: INFO: HupsiPupshi executed: /spawnmob 392 .
2020-06-13 18:10:23 - Utils: INFO: HupsiPupshi executed: /spawnmob 392 20.
2020-06-13 18:11:24 - Utils: INFO: HupsiPupshi executed: /spawnmob 392.
2020-06-13 18:12:06 - Utils: INFO: HupsiPupshi executed: /spawnmob 399.
2020-06-13 18:13:04 - Utils: INFO: HupsiPupshi executed: /spawnmob 392.
2020-06-13 18:13:07 - Utils: INFO: HupsiPupshi executed: /spawnmob 399.
2020-06-13 18:13:16 - Utils: INFO: HupsiPupshi executed: /spawnmob 395.
2020-06-13 18:13:20 - Utils: INFO: HupsiPupshi executed: /spawnmob 395 99.
2020-06-13 18:15:16 - Utils: INFO: Broadcast: Saving world...
2020-06-13 18:15:25 - Utils: INFO: HupsiPupshi executed: /time day.
2020-06-13 18:15:35 - Utils: INFO: HupsiPupshi executed: /help 2.
2020-06-13 18:15:37 - Utils: INFO: HupsiPupshi executed: /help 1.
2020-06-13 18:15:56 - Utils: INFO: Broadcast: HupsiPupshi has left.
2020-06-13 18:15:56 - TShock: INFO: HupsiPupshi disconnected.
2020-06-13 18:15:56 - Utils: INFO: Broadcast: Saving world...
2020-06-13 18:15:58 - Utils: INFO: Broadcast: World saved.
2020-06-13 18:15:58 - SaveManager: INFO: World saved at (C:\Users\asafgb\Documents\My Games\Terraria\Worlds\CorrHome.wld)
2020-06-13 18:15:59 - GetDataHandlers: INFO: HupsiPupshi authenticated successfully as user HupsiPupshi.
2020-06-13 18:16:01 - TShock: INFO: HupsiPupshi (127.0.0.1) from 'owner' group joined. (1/4)
2020-06-13 18:16:01 - Utils: INFO: Broadcast: HupsiPupshi has joined.
2020-06-13 18:16:31 - Utils: INFO: HupsiPupshi executed: /heal.
2020-06-13 18:16:33 - Utils: INFO: HupsiPupshi executed: /godmode.
2020-06-13 18:16:48 - Utils: INFO: Broadcast: HupsiPupshi: /
2020-06-13 18:16:52 - Utils: INFO: HupsiPupshi executed: /spawnmob 395.
2020-06-13 18:16:57 - Utils: INFO: HupsiPupshi executed: /spawnmob 395 200.
2020-06-13 18:17:08 - Utils: INFO: Broadcast: HupsiPupshi: 395
2020-06-13 18:17:10 - Utils: INFO: HupsiPupshi executed: /spawnmob 395.
2020-06-13 18:17:12 - Utils: INFO: HupsiPupshi executed: /spawnmob 395.
2020-06-13 18:17:15 - Utils: INFO: HupsiPupshi executed: /spawnmob 395 10.
2020-06-13 18:18:10 - Utils: INFO: HupsiPupshi executed: /spawnmob 395.
2020-06-13 18:18:12 - Utils: INFO: HupsiPupshi executed: /spawnmob 395 10.
2020-06-13 18:18:15 - Utils: INFO: HupsiPupshi executed: /spawnmob 395.
2020-06-13 18:18:18 - Utils: INFO: HupsiPupshi executed: /spawnmob 395 10.
2020-06-13 18:18:21 - Utils: INFO: HupsiPupshi executed: /spawnmob 395 10.
2020-06-13 18:19:29 - Utils: INFO: HupsiPupshi executed: /spawnmob 395 20.
2020-06-13 18:20:49 - Utils: INFO: HupsiPupshi executed: /spawnmob 395 20.
2020-06-13 18:21:25 - Utils: INFO: HupsiPupshi executed: /item Lifeforce Potion.
2020-06-13 18:21:42 - Utils: INFO: HupsiPupshi executed: /spawnmob Lifeforce Potion 20.
2020-06-13 18:21:49 - Utils: INFO: HupsiPupshi executed: /spawnmob 395.
2020-06-13 18:21:53 - Utils: INFO: HupsiPupshi executed: /spawnmob 395 20.
2020-06-13 18:21:55 - Utils: INFO: HupsiPupshi executed: /spawnmob 395 20.
2020-06-13 18:25:20 - Utils: INFO: Broadcast: Saving world...
2020-06-13 18:28:49 - Utils: INFO: HupsiPupshi executed: /item wood 10.
2020-06-13 18:28:56 - Utils: INFO: HupsiPupshi executed: /item piggy.
2020-06-13 18:29:08 - Utils: INFO: HupsiPupshi executed: /item void.
2020-06-13 18:29:12 - Utils: INFO: HupsiPupshi executed: /item void valut.
2020-06-13 18:29:19 - Utils: INFO: HupsiPupshi executed: /item void vault.
2020-06-13 18:29:31 - Utils: INFO: HupsiPupshi executed: /item piggy.
2020-06-13 18:34:19 - Utils: INFO: HupsiPupshi executed: /worldevent bloodmoon.
2020-06-13 18:35:20 - Utils: INFO: Broadcast: Saving world...
2020-06-13 18:45:20 - Utils: INFO: Broadcast: Saving world...
2020-06-13 18:55:20 - Utils: INFO: Broadcast: Saving world...
2020-06-13 19:05:20 - Utils: INFO: Broadcast: Saving world...
2020-06-13 19:15:20 - Utils: INFO: Broadcast: Saving world...
2020-06-13 19:25:20 - Utils: INFO: Broadcast: Saving world...
2020-06-13 19:35:20 - Utils: INFO: Broadcast: Saving world...
2020-06-13 19:45:20 - Utils: INFO: Broadcast: Saving world...
2020-06-13 19:52:37 - Utils: INFO: HupsiPupshi executed: /spawnmob 127 20.
2020-06-13 19:55:20 - Utils: INFO: Broadcast: Saving world...
2020-06-13 20:05:20 - Utils: INFO: Broadcast: Saving world...
2020-06-13 20:09:53 - Utils: INFO: HupsiPupshi executed: /item suspicious war.
2020-06-13 20:10:00 - Utils: INFO: HupsiPupshi executed: /item suspicious.
2020-06-13 20:10:06 - Utils: INFO: HupsiPupshi executed: /item suspicious looking tentacle .
2020-06-13 20:10:09 - Utils: INFO: HupsiPupshi executed: /item suspicious looking tentacle 1 warding.
2020-06-13 20:12:09 - Utils: INFO: Broadcast: HupsiPupshi: '/time
2020-06-13 20:12:10 - Utils: INFO: HupsiPupshi executed: /time day.
2020-06-13 20:12:49 - Utils: INFO: HupsiPupshi executed: /item tin ore.
2020-06-13 20:13:07 - Utils: INFO: HupsiPupshi executed: /item copper ore.
2020-06-13 20:13:09 - Utils: INFO: HupsiPupshi executed: /item copper  bar.
2020-06-13 20:13:22 - Utils: INFO: HupsiPupshi executed: /item tin bar.
2020-06-13 20:13:31 - Utils: INFO: HupsiPupshi executed: /item iron ore.
2020-06-13 20:13:35 - Utils: INFO: HupsiPupshi executed: /item iron bar.
2020-06-13 20:14:20 - Utils: INFO: HupsiPupshi executed: /item lead bar.
2020-06-13 20:14:42 - Utils: INFO: HupsiPupshi executed: /item silver ore.
2020-06-13 20:15:20 - Utils: INFO: Broadcast: Saving world...
2020-06-13 20:19:22 - Utils: INFO: HupsiPupshi executed: /item tungsten ore.
2020-06-13 20:19:24 - Utils: INFO: HupsiPupshi executed: /item tungsten bar.
2020-06-13 20:19:52 - Utils: INFO: HupsiPupshi executed: /item gold bar.
2020-06-13 20:20:41 - Utils: INFO: HupsiPupshi executed: /item Demonite Bar.
2020-06-13 20:20:52 - Utils: INFO: HupsiPupshi executed: /item Crimtane Bar .
2020-06-13 20:21:15 - Utils: INFO: HupsiPupshi executed: /item hellstone 900.
2020-06-13 20:21:22 - Utils: INFO: HupsiPupshi executed: /item hellstone bar.
2020-06-13 20:22:08 - Utils: INFO: HupsiPupshi executed: /item 364.
2020-06-13 20:22:17 - Utils: INFO: HupsiPupshi executed: /item Cobalt bar.
2020-06-13 20:22:37 - Utils: INFO: HupsiPupshi executed: /item Palladium ore 300.
2020-06-13 20:22:41 - Utils: INFO: HupsiPupshi executed: /item Palladium bar 400.
2020-06-13 20:23:02 - Utils: INFO: HupsiPupshi executed: /item Mythril ore 300.
2020-06-13 20:23:03 - Utils: INFO: HupsiPupshi executed: /item Mythril 500.
2020-06-13 20:23:07 - Utils: INFO: HupsiPupshi executed: /item Mythril bar 400.
2020-06-13 20:23:22 - Utils: INFO: HupsiPupshi executed: /item Orichalcum ore 500.
2020-06-13 20:23:24 - Utils: INFO: HupsiPupshi executed: /item Orichalcum bar 300.
2020-06-13 20:23:49 - Utils: INFO: HupsiPupshi executed: /item Adamantite ore 2300.
2020-06-13 20:23:53 - Utils: INFO: HupsiPupshi executed: /item Adamantite bar 230.
2020-06-13 20:24:04 - Utils: INFO: HupsiPupshi executed: /item 1106 300.
2020-06-13 20:24:07 - Utils: INFO: HupsiPupshi executed: /item 1106 bar 499.
2020-06-13 20:24:18 - Utils: INFO: HupsiPupshi executed: /item Titanium Bar 300.
2020-06-13 20:24:29 - Utils: INFO: HupsiPupshi executed: /item Chlorophyte Ore 400.
2020-06-13 20:24:31 - Utils: INFO: Broadcast: HupsiPupshi: Chlorophyte 
2020-06-13 20:24:35 - Utils: INFO: HupsiPupshi executed: /item Chlorophyte bar 230.
2020-06-13 20:24:55 - Utils: INFO: HupsiPupshi executed: /item Luminite 900.
2020-06-13 20:25:20 - Utils: INFO: Broadcast: Saving world...
2020-06-13 20:35:20 - Utils: INFO: Broadcast: Saving world...
2020-06-13 20:42:09 - Utils: INFO: Broadcast: HupsiPupshi: a
2020-06-13 20:45:20 - Utils: INFO: Broadcast: Saving world...
2020-06-13 20:51:22 - Utils: INFO: HupsiPupshi executed: /time noon.
2020-06-13 20:51:46 - Utils: INFO: HupsiPupshi executed: /item truffle worm 90.
2020-06-13 20:52:02 - Utils: INFO: HupsiPupshi executed: /item glowing mush 90.
2020-06-13 20:52:07 - Utils: INFO: HupsiPupshi executed: /item glowing mushroom.
2020-06-13 20:55:20 - Utils: INFO: Broadcast: Saving world...
2020-06-13 20:55:34 - Utils: INFO: HupsiPupshi executed: /item place.
2020-06-13 20:55:41 - Utils: INFO: HupsiPupshi executed: /item builder.
2020-06-13 21:01:01 - Utils: INFO: HupsiPupshi executed: /item 2354.
2020-06-13 21:01:39 - Utils: INFO: HupsiPupshi executed: /item chum caster.
2020-06-13 21:02:21 - Utils: INFO: HupsiPupshi executed: /worldevent bloodmoon.
2020-06-13 21:05:20 - Utils: INFO: Broadcast: Saving world...
2020-06-13 21:05:28 - Utils: INFO: HupsiPupshi executed: /time night.
2020-06-13 21:06:00 - Utils: INFO: HupsiPupshi executed: /time noon.
2020-06-13 21:10:15 - Utils: INFO: HupsiPupshi executed: /item silt.
2020-06-13 21:12:10 - Utils: INFO: HupsiPupshi executed: /item Slush.
2020-06-13 21:13:39 - Utils: INFO: HupsiPupshi executed: /item Clay.
2020-06-13 21:13:43 - Utils: INFO: HupsiPupshi executed: /item Clay block.
2020-06-13 21:14:13 - Utils: INFO: HupsiPupshi executed: /time noon.
2020-06-13 21:15:20 - Utils: INFO: Broadcast: Saving world...
2020-06-13 21:18:39 - Utils: INFO: HupsiPupshi executed: /item sand block.
2020-06-13 21:21:56 - Utils: INFO: HupsiPupshi executed: /time noon.
2020-06-13 21:25:20 - Utils: INFO: Broadcast: Saving world...
2020-06-13 21:29:25 - Utils: INFO: HupsiPupshi executed: /time noon.
2020-06-13 21:30:04 - Utils: INFO: HupsiPupshi executed: /item slit.
2020-06-13 21:30:08 - Utils: INFO: HupsiPupshi executed: /item silt.
2020-06-13 21:35:20 - Utils: INFO: Broadcast: Saving world...
2020-06-13 21:36:14 - Utils: INFO: HupsiPupshi executed: /time.
2020-06-13 21:36:24 - Utils: INFO: HupsiPupshi executed: /time noon.
2020-06-13 21:39:18 - Utils: INFO: HupsiPupshi executed: /item clay 20.
2020-06-13 21:39:22 - Utils: INFO: HupsiPupshi executed: /item cly bloc.
2020-06-13 21:39:25 - Utils: INFO: HupsiPupshi executed: /item clay block 290.
2020-06-13 21:40:18 - Utils: INFO: HupsiPupshi executed: /item slit.
2020-06-13 21:40:21 - Utils: INFO: HupsiPupshi executed: /item silt.
2020-06-13 21:40:23 - Utils: INFO: Broadcast: HupsiPupshi: /
2020-06-13 21:45:20 - Utils: INFO: Broadcast: Saving world...
2020-06-13 21:45:25 - Utils: INFO: HupsiPupshi executed: /time noon.
2020-06-13 21:53:03 - Utils: INFO: HupsiPupshi executed: /time noon.
2020-06-13 21:55:20 - Utils: INFO: Broadcast: Saving world...
2020-06-13 21:59:42 - Utils: INFO: HupsiPupshi executed: /item dirty block.
2020-06-13 21:59:45 - Utils: INFO: HupsiPupshi executed: /item clay block.
2020-06-13 22:01:17 - Utils: INFO: HupsiPupshi executed: /item wood.
2020-06-13 22:03:14 - Utils: INFO: HupsiPupshi executed: /item stone block.
2020-06-13 22:03:46 - Utils: INFO: HupsiPupshi executed: /item builder 1.
2020-06-13 22:05:20 - Utils: INFO: Broadcast: Saving world...
2020-06-13 22:15:20 - Utils: INFO: Broadcast: Saving world...
2020-06-13 22:16:58 - Utils: INFO: HupsiPupshi executed: /item 3721 .
2020-06-13 22:17:24 - Utils: INFO: HupsiPupshi executed: /worldevent bloodmoon.
2020-06-13 22:18:23 - Utils: INFO: Server executed: /worldevent bloodmoon.
2020-06-13 22:18:29 - Utils: INFO: Server executed: /worldevent bloodmoon.
2020-06-13 22:18:32 - Utils: INFO: Server executed: /stop.
2020-06-13 22:18:32 - Utils: INFO: Broadcast: Saving world...
2020-06-13 22:18:33 - Utils: INFO: Broadcast: World saved.
2020-06-13 22:18:33 - SaveManager: INFO: World saved at (C:\Users\asafgb\Documents\My Games\Terraria\Worlds\CorrHome.wld)
2020-06-13 22:18:33 - Utils: INFO: Broadcast: Server shutting down!
